Location,Name,Frequency,Duplex,Offset,Tone,rToneFreq,cToneFreq,DtcsCode,DtcsPolarity,Mode,TStep,Skip,Comment,URCALL,RPT1CALL,RPT2CALL,DVCODE
0,Xaxa,432.1,,0.6,,,,23,NN,FM,5,,,,,,
1,GMRS 1,462.5625,,0.6,,,,23,NN,FM,5,,,,,,
2,GMRS 2,462.5875,,0.6,,,,23,NN,FM,5,,,,,,
3,GMRS 3,462.6125,,0.6,,,,23,NN,FM,5,,,,,,
4,GMRS 4,462.6375,,0.6,,,,23,NN,FM,5,,,,,,
5,GMRS 5,462.6625,,0.6,,,,23,NN,FM,5,,,,,,
6,GMRS 6,462.6875,,0.6,,,,23,NN,FM,5,,,,,,
7,GMRS 7,462.7125,,0.6,,,,23,NN,FM,5,,,,,,
8,GMRS 8,467.5625,,0.6,,,,23,NN,NFM,5,,,,,,
9,GMRS 9,467.5875,,0.6,,,,23,NN,NFM,5,,,,,,
10,GMRS 10,467.6125,,0.6,,,,23,NN,NFM,5,,,,,,
11,GMRS 11,467.6375,,0.6,,,,23,NN,NFM,5,,,,,,
12,GMRS 12,467.6625,,0.6,,,,23,NN,NFM,5,,,,,,
13,GMRS 13,467.6875,,0.6,,,,23,NN,NFM,5,,,,,,
14,GMRS 14,467.7125,,0.6,,,,23,NN,NFM,5,,,,,,
15,GMRS 15,462.55,,0.6,,,,23,NN,FM,5,,,,,,
16,GMRS 16,462.575,,0.6,,,,23,NN,FM,5,,,,,,
17,GMRS 17,462.6,,0.6,,,,23,NN,FM,5,,,,,,
18,GMRS 18,462.625,,0.6,,,,23,NN,FM,5,,,,,,
19,GMRS 19,462.65,,0.6,,,,23,NN,FM,5,,,,,,
20,GMRS 20,462.675,,0.6,,,,23,NN,FM,5,,,,,,
21,GMRS 21,462.7,,0.6,,,,23,NN,FM,5,,,,,,
22,GMRS 22,462.725,,0.6,,,,23,NN,FM,5,,,,,,
23,Marine 16,156.8,,0.6,,,,23,NN,FM,5,,,,,,
24,Marine 68,156.425,,0.6,,,,23,NN,FM,5,,,,,,
25,Marine 69,156.475,,0.6,,,,23,NN,FM,5,,,,,,
26,Marine 71,156.575,,0.6,,,,23,NN,FM,5,,,,,,
27,Marine 72,156.625,,0.6,,,,23,NN,FM,5,,,,,,
28,Smplx 2M,146.52,,0.6,,,,23,NN,FM,5,,,,,,
29,Smplx 70cm,446,,0.6,,,,23,NN,FM,5,,,,,,
31,SB PD,490.5375,,0.6,Tone,167.9,,23,NN,FM,5,,,,,,
32,SM PD ND,154.1,,0.6,Tone,114.8,,23,NN,FM,5,,,,,,
33,SM PD CD,153.785,,0.6,Tone,156.7,,23,NN,FM,5,,,,,,
34,SM PD SD,153.89,,0.6,Tone,114.8,,23,NN,FM,5,,,,,,
35,RC PDD,483.4125,,0.6,Tone,186.2,,23,NN,FM,5,,,,,,
36,SF PD,488.4625,,0.6,Tone,114.8,,23,NN,FM,5,,,,,,
50,N6MNV,442.7,+,5,TSQL,,173.8,23,NN,FM,5,,,,,,
51,K7CBL,440.05,+,5,TSQL,,100,23,NN,FM,5,,,,,,
52,K6PVJ,440.55,+,5,TSQL,,114.8,23,NN,FM,5,,,,,,
53,K6DNA,441.25,+,5,TSQL,,141.3,23,NN,FM,5,,,,,,
114,WX01,162.55,,0.6,,,,23,NN,FM,5,S,,,,,
115,WX02,162.4,,0.6,,,,23,NN,FM,5,S,,,,,
116,WX03,162.475,,0.6,,,,23,NN,FM,5,S,,,,,
117,WX04,162.425,,0.6,,,,23,NN,FM,5,S,,,,,
118,WX05,162.45,,0.6,,,,23,NN,FM,5,S,,,,,
119,WX06,162.5,,0.6,,,,23,NN,FM,5,S,,,,,
120,WX07,162.525,,0.6,,,,23,NN,FM,5,S,,,,,
121,WX08,161.65,,0.6,,,,23,NN,FM,5,S,,,,,
122,WX09,161.775,,0.6,,,,23,NN,FM,5,S,,,,,
123,WX10,163.275,,0.6,,,,23,NN,FM,5,S,,,,,
124,CHURCH 4,466.4125,,0.6,DTCS,,115N,23,NN,NFM,5,S,,,,,
125,CHURCH 3,467.215,,0.6,DTCS,,664N,23,NN,NFM,5,S,,,,,
126,CHURCH 2,468.6125,,0.6,TSQL,,141.3,23,NN,NFM,5,S,,,,,
127,CHURCH 1,469.5625,,0.6,DTCS,,365N,23,NN,NFM,5,,,,,,
